<?xml version="1.0" encoding="UTF-8" standalone="no"?>
<svg
   xmlns:dc="http://purl.org/dc/elements/1.1/"
   xmlns:cc="http://creativecommons.org/ns#"
   xmlns:rdf="http://www.w3.org/1999/02/22-rdf-syntax-ns#"
   xmlns:svg="http://www.w3.org/2000/svg"
   xmlns="http://www.w3.org/2000/svg"
   xmlns:sodipodi="http://sodipodi.sourceforge.net/DTD/sodipodi-0.dtd"
   xmlns:inkscape="http://www.inkscape.org/namespaces/inkscape"
   width="16"
   height="16"
   viewBox="0 0 12 12"
   version="1.1"
   id="svg3765"
   sodipodi:docname="bitbucket.svg"
   inkscape:version="0.92.5 (2060ec1f9f, 2020-04-08)">
  <metadata
     id="metadata3771">
    <rdf:RDF>
      <cc:Work
         rdf:about="">
        <dc:format>image/svg+xml</dc:format>
        <dc:type
           rdf:resource="http://purl.org/dc/dcmitype/StillImage" />
        <dc:title></dc:title>
      </cc:Work>
    </rdf:RDF>
  </metadata>
  <defs
     id="defs3769" />
  <sodipodi:namedview
     pagecolor="#ffffff"
     bordercolor="#666666"
     borderopacity="1"
     objecttolerance="10"
     gridtolerance="10"
     guidetolerance="10"
     inkscape:pageopacity="0"
     inkscape:pageshadow="2"
     inkscape:window-width="3840"
     inkscape:window-height="2032"
     id="namedview3767"
     showgrid="false"
     units="px"
     inkscape:zoom="83.484375"
     inkscape:cx="10.666667"
     inkscape:cy="9.3980161"
     inkscape:window-x="0"
     inkscape:window-y="54"
     inkscape:window-maximized="1"
     inkscape:current-layer="surface1" />
  <g
     id="surface1"
     transform="translate(0,-4.0000009)">
    <path
       style="fill:#000000;fill-opacity:1;fill-rule:nonzero;stroke:none;stroke-width:0.75120282"
       d="M 6.75496,9.7207613 C 6.7923993,10.031707 6.674323,10.276879 6.3949729,10.465243 6.1185022,10.650616 5.8564312,10.665567 5.6029999,10.507101 5.4215661,10.426375 5.2919707,10.28286 5.2257335,10.079545 5.156616,9.8792242 5.1537356,9.6789027 5.2199733,9.478579 5.2862112,9.2752664 5.4100471,9.1317511 5.5914803,9.0510236 5.7613946,8.9613261 5.931309,8.9314274 6.104103,8.9613261 6.2768967,8.9912255 6.4295311,9.0779325 6.5591269,9.2214479 6.6887219,9.3679528 6.75496,9.5323976 6.75496,9.7207613 Z M 7.5411723,9.5652867 C 7.4749352,9.0420536 7.2071048,8.6384165 6.737681,8.3603559 6.2711363,8.0793054 5.8045933,8.0464163 5.3409296,8.264679 5.0414199,8.3992244 4.8052677,8.6174872 4.6295941,8.9164781 4.4510399,9.2124779 4.3704026,9.5294079 4.384802,9.8702537 c 0.01728,0.4454933 0.2015934,0.8252113 0.5500611,1.1391503 0.3484677,0.316931 0.7372544,0.451476 1.1721195,0.412607 0.4319852,-0.03887 0.7919733,-0.245171 1.0799629,-0.61592 0.2879897,-0.376727 0.4060659,-0.789333 0.3542268,-1.2408043 z M 9.2374344,5.5737668 C 9.1423976,5.4422111 9.0099224,5.3315849 8.840008,5.2448773 8.6700936,5.1611606 8.5318581,5.107342 8.4281827,5.0834228 8.3245053,5.0624934 8.1545919,5.0325947 7.9241998,4.9937261 6.5476072,4.763503 5.2113335,4.7664928 3.9096186,5.005685 3.7051463,5.0415645 3.5496312,5.0714632 3.4401947,5.0953824 3.3336386,5.1193017 3.2011636,5.1731195 3.0514087,5.2568375 2.8987742,5.340554 2.7806978,5.4452009 2.6943011,5.5737668 2.8382958,5.7113027 3.0168499,5.8219289 3.2357224,5.9086359 3.451715,5.9953427 3.6273888,6.0491615 3.7569841,6.070091 3.8865794,6.09401 4.0939323,6.12092 4.3761628,6.156798 5.4532451,6.2973227 6.5130482,6.3003133 7.5555721,6.162778 7.8522024,6.123911 8.0624353,6.094013 8.1891511,6.076073 8.3129867,6.0551413 8.4857803,6.0013237 8.7017726,5.9176067 8.9235251,5.8308999 9.099199,5.7172831 9.2374344,5.5737668 Z m 0.4031858,7.6212572 c -0.037439,0.128566 -0.074879,0.316929 -0.1094367,0.565092 -0.03456,0.248161 -0.06912,0.454464 -0.097912,0.618909 C 9.40159,14.543469 9.3353487,14.713894 9.2316778,14.893288 9.1251222,15.072682 8.9897659,15.213207 8.8198525,15.308885 8.4109064,15.545087 7.964522,15.72149 7.474939,15.838098 6.9853559,15.951714 6.5072925,16.005532 6.0407485,15.999552 5.5742011,15.990599 5.099017,15.945733 4.612314,15.862017 4.3934418,15.823148 4.2004884,15.7783 4.0334545,15.730461 3.8664207,15.682623 3.6849868,15.613855 3.4891535,15.533128 3.2962001,15.449411 3.1234061,15.341774 2.9736513,15.210218 2.8210167,15.081652 2.6971808,14.929167 2.6021442,14.758743 2.4840686,14.286338 2.3515928,13.568761 2.1989582,12.606013 l 0.043198,-0.116606 0.1267164,-0.06578 c 1.054043,0.726546 2.2520815,1.091314 3.5941154,1.091314 1.3391539,0 2.5400716,-0.364768 3.5998757,-1.091314 0.097912,0.0299 0.1555145,0.08671 0.1699134,0.170423 0.014396,0.08073 0,0.191354 -0.037439,0.331881 -0.03456,0.134546 -0.054715,0.227232 -0.054715,0.269089 z M 10.925057,6.1179295 c -0.120957,0.8222225 -0.385907,2.4278 -0.786215,4.8256975 -0.02592,0.146506 -0.08927,0.284041 -0.1929523,0.412608 C 9.8422135,11.481809 9.7385361,11.580476 9.63774,11.652234 9.5369438,11.718015 9.4073478,11.795748 9.2518333,11.879466 8.0595551,12.498377 6.6167245,12.713649 4.9233435,12.525285 3.7512246,12.39373 2.8181363,12.052881 2.1298406,11.50274 2.0578423,11.442937 1.9973649,11.380154 1.9484068,11.308396 1.8994487,11.236637 1.8591297,11.149931 1.8274506,11.051264 1.7986519,10.949607 1.7756127,10.865889 1.7640931,10.800113 1.7525735,10.734331 1.7381742,10.638657 1.7208945,10.510092 1.7064952,10.381526 1.6920958,10.297808 1.6834559,10.25296 1.6402573,10.007788 1.5768999,9.6400338 1.4962626,9.1467004 1.412745,8.6563565 1.3465078,8.2586989 1.297549,7.9597094 1.2485907,7.654739 1.1938733,7.2959507 1.1305151,6.8713841 1.0700374,6.4498081 1.0181988,6.0641108 0.975,5.7083122 0.98940008,5.5827367 1.0297184,5.4631406 1.0988359,5.3525145 1.1679536,5.2418875 1.2428313,5.1492003 1.3234686,5.074453 1.4012261,4.9997056 1.5077822,4.9279479 1.6431371,4.8532005 1.772733,4.7814429 1.8821689,4.7246345 1.9685663,4.6887557 2.0549629,4.6528769 2.1672792,4.6080282 2.3083942,4.5542102 2.901654,4.3269776 3.6417881,4.1685123 4.5287974,4.0818052 6.3200953,3.8994214 7.9213206,4.0220074 9.3238307,4.4495635 10.058205,4.6738063 10.565069,4.9757863 10.85018,5.3495239 c 0.07487,0.098668 0.115196,0.2212532 0.115196,0.3737377 0,0.1494955 -0.01153,0.2840408 -0.04032,0.3946679 z m 0,0"
       id="path3762"
       inkscape:connector-curvature="0" />
  </g>
</svg>
